@startuml
DeviceABrowser -> DeviceABrowser : Load webqrtc.com page
DeviceABrowser -> DeviceABrowser : Pick UUID
DeviceABrowser -> ServerPushSignnalingServer: Listen for events on the own uuid
DeviceABrowser -> DeviceABrowser : Render QRCode with the url
DeviceABrowser <- DeviceBBrowser : Scan QrCode
DeviceBBrowser -> DeviceBBrowser : Load webqrtc.com/mobile/:DeviceABrowser_UUID page
DeviceBBrowser -> DeviceBBrowser : Pick UUID
DeviceBBrowser -> ServerPushSignnalingServer : Listen for events on the own UUID
DeviceBBrowser -> ServerPushSignnalingServer : Post Own UUID
ServerPushSignnalingServer -> DeviceABrowser : Push Partner UUID
DeviceABrowser -> ServerPushSignnalingServer : Post Connection Ready Message
ServerPushSignnalingServer -> DeviceBBrowser : push  Connection Ready Message
DeviceBBrowser -> DeviceBBrowser : creat Peer Connection
DeviceABrowser -> DeviceABrowser : Create Peer connection
DeviceABrowser -> DeviceABrowser : Gather ICE candidates
DeviceBBrowser -> DeviceBBrowser : Gather ICE candidates
DeviceABrowser -> ServerPushSignnalingServer : Post ICE candidates
ServerPushSignnalingServer -> DeviceBBrowser : Push DeviceABrowser ICE candidates
DeviceBBrowser -> ServerPushSignnalingServer : Post ICE candidates
DeviceABrowser <- ServerPushSignnalingServer : Push DeviceBBrowser ICE candidates
@enduml
